a1=[5.34281,-4.53757;
4.93357,-4.69546;
4.53851,-4.79542;
4.1648,-4.84662;
3.81668,-4.85806;
3.49613,-4.83802;
3.20347,-4.79371;
2.9379,-4.7312;
2.69791,-4.65547;
2.48162,-4.5705;
2.28698,-4.47941;
2.11192,-4.38463;
1.95447,-4.28802;
1.81275,-4.19096;
1.68507,-4.09448;
1.56986,-3.99932;
1.46574,-3.90603;
1.37149,-3.81495;
1.286,-3.72632;
1.20831,-3.64027;
1.13756,-3.55688;
1.07301,-3.47616;
1.01398,-3.39807;
0.959907,-3.32256;
0.910267,-3.24955;
0.864607,-3.17897;
0.822529,-3.1107;
0.783679,-3.04464;
0.747742,-2.9807;
0.714441,-2.91876;
0.683528,-2.85873;
0.654785,-2.80049;
0.628014,-2.74396;
0.603042,-2.68904;
0.57971,-2.63562;
0.55788,-2.58364;
0.537424,-2.533;
0.51823,-2.48362;
0.500195,-2.43542;
0.483228,-2.38833;
0.467244,-2.34228;
0.45217,-2.29721;
0.437935,-2.25304;
0.424478,-2.20971;
0.411742,-2.16717;
0.399676,-2.12536;
0.388232,-2.08423;
0.377368,-2.04371;
0.367043,-2.00376;
0.357222,-1.96432;
0.347871,-1.92535;
0.338958,-1.8868;
0.330455,-1.84861;
0.322336,-1.81075;
0.314574,-1.77315;
0.307148,-1.73577;
0.300033,-1.69855;
0.293209,-1.66144;
0.286654,-1.62439;
0.280349,-1.58732;
0.27427,-1.55018;
0.268398,-1.51289;
0.262706,-1.47536;
0.257168,-1.43749;
0.251752,-1.39917;
0.246415,-1.36027;
0.241103,-1.32059;
0.235736,-1.27993;
0.230193,-1.23796;
0.22427,-1.19428;
0.21759,-1.14825;
0.209368,-1.09891;
0.197665,-1.04482;
0.176969,-0.985123;
0.138604,-0.929277;
0.0942198,-0.891842;
0.0559828,-0.86536;
0.0236144,-0.843278;
-0.00443041,-0.823236;
-0.0292192,-0.804287;
-0.0514478,-0.78598;
-0.0715858,-0.768075;
-0.0899633,-0.750428;
-0.106821,-0.732951;
-0.122339,-0.715582;
-0.136656,-0.698281;
-0.14988,-0.681021;
-0.162097,-0.663779;
-0.173375,-0.646544;
-0.183768,-0.629305;
-0.193322,-0.612058;
-0.202074,-0.594801;
-0.210053,-0.577536;
-0.217284,-0.560266;
-0.223789,-0.543;
-0.229583,-0.525745;
-0.234685,-0.508514;
-0.239107,-0.49132;
-0.242863,-0.474181;
-0.245966,-0.457113;
-0.248432,-0.440137;
-0.250275,-0.423273;
-0.251513,-0.406543;
-0.252164,-0.389969;
-0.252249,-0.373575;
-0.251793,-0.35738;
-0.250822,-0.341406;
-0.249363,-0.325671;
-0.247448,-0.310192;
-0.24511,-0.294982;
-0.242381,-0.280053;
-0.239297,-0.265413;
-0.235892,-0.251065;
-0.232203,-0.237013;
-0.228263,-0.223255;
-0.224107,-0.209786;
-0.219767,-0.196601;
-0.215275,-0.183692;
-0.21066,-0.171047;
-0.20595,-0.158657;
-0.201171,-0.146508;
-0.196349,-0.134588;
-0.191505,-0.122884;
-0.186661,-0.111383;
-0.181836,-0.100073;
-0.177048,-0.0889408;
-0.172314,-0.077976;
-0.167648,-0.0671677;
-0.163064,-0.0565064;
-0.158575,-0.0459836;
-0.154192,-0.0355919;
-0.149923,-0.0253246;
-0.145778,-0.0151765;
-0.141763,-0.0051429;
-0.137886,0.00477972;
-0.134149,0.0145943;
-0.130274,0.0250816;
-0.126571,0.0354475;
-0.123042,0.0456936;
-0.119687,0.0558212;
-0.121974,0.0489055;
-0.124393,0.0418595;
-0.126963,0.0346785;
-0.129705,0.0273589;
-0.132644,0.0198989;
-0.135803,0.012299;
-0.13921,0.00456253;
-0.142894,-0.00330366;
-0.146884,-0.0112886;
-0.15121,-0.0193765;
-0.155901,-0.0275466;
-0.160984,-0.0357726;
-0.166483,-0.0440231;
-0.172417,-0.0522623;
-0.1788,-0.0604507;
-0.185639,-0.068547;
-0.192934,-0.0765098;
-0.200677,-0.0842989;
-0.208856,-0.0918776;
-0.217454,-0.0992134;
-0.226449,-0.106279;
-0.23582,-0.113052;
-0.245545,-0.119517;
-0.255601,-0.125659;
-0.265969,-0.131471;
-0.276632,-0.136947;
-0.287576,-0.142082;
-0.298789,-0.146875;
-0.310262,-0.151321;
-0.321991,-0.155419;
-0.33397,-0.159165;
-0.3462,-0.162553;
-0.358681,-0.165576;
-0.371415,-0.168225;
-0.384405,-0.170487;
-0.397656,-0.172349;
-0.411172,-0.173791;
-0.424958,-0.17479;
-0.439017,-0.175321;
-0.45335,-0.175352;
-0.467958,-0.174847;
-0.482837,-0.173767;
-0.497976,-0.172064;
-0.513362,-0.169688;
-0.52897,-0.166583;
-0.544765,-0.162691;
-0.560703,-0.15795;
-0.57672,-0.152301;
-0.59274,-0.145689;
-0.608668,-0.138068;
-0.624394,-0.129405;
-0.639794,-0.11969;
-0.654735,-0.108938;
-0.671655,-0.111515;
-0.688953,-0.113874;
-0.70664,-0.115995;
-0.724725,-0.117861;
-0.743219,-0.119449;
-0.762134,-0.120738;
-0.78148,-0.121703;
-0.801272,-0.122318;
-0.82152,-0.122555;
-0.831535,-0.162818;
-0.839239,-0.200362;
-0.845221,-0.235876;
-0.849841,-0.269822;
-0.853332,-0.302529;
-0.855858,-0.334239;
-0.857534,-0.365142;
-0.858446,-0.395392;
-0.85866,-0.425114;
-0.858225,-0.454417;
-0.857178,-0.483395;
-0.855546,-0.512133;
-0.853351,-0.540709;
-0.850606,-0.569195;
-0.84732,-0.597662;
-0.843498,-0.626177;
-0.839139,-0.654809;
-0.83424,-0.683628;
-0.828795,-0.712704;
-0.822794,-0.742114;
-0.816225,-0.77194;
-0.809074,-0.802268;
-0.801326,-0.833198;
-0.792965,-0.864838;
-0.783977,-0.897312;
-0.774352,-0.930764;
-0.764089,-0.965356;
-0.7532,-1.00128;
-0.741719,-1.03876;
-0.72972,-1.07806;
-0.717333,-1.11946;
-0.704775,-1.1633;
-0.692382,-1.20989;
-0.680645,-1.25951;
-0.670213,-1.31229;
-0.66184,-1.36812;
-0.656239,-1.42658;
-0.653898,-1.48694;
-0.654951,-1.54838;
-0.659198,-1.61018;
-0.666227,-1.6718;
-0.675563,-1.73297;
-0.686754,-1.79358;
-0.69942,-1.85366;
-0.713256,-1.91332;
-0.728027,-1.97269;
-0.743552,-2.03193;
-0.759694,-2.0912;
-0.776348,-2.15068;
-0.793433,-2.21051;
-0.810886,-2.27087;
-0.828656,-2.33193;
-0.8467,-2.39384;
-0.80471,-2.43817;
-0.761915,-2.48269;
-0.718279,-2.52746;
-0.673767,-2.57254;
-0.628345,-2.61798;
-0.581978,-2.66382;
-0.534632,-2.71012;
-0.486273,-2.75692;
-0.436869,-2.80428;
-0.386385,-2.85223;
-0.334785,-2.90082;
-0.282032,-2.95009;
-0.228089,-3.00007;
-0.172911,-3.05078;
-0.116454,-3.10227;
-0.0586645,-3.15454;
0.000514652,-3.20762;
0.0611491,-3.2615;
0.123313,-3.31621;
0.18709,-3.37173;
0.252575,-3.42806;
0.319876,-3.4852;
0.389111,-3.54311;
0.460415,-3.60179;
0.533936,-3.6612;
0.609841,-3.7213;
0.688311,-3.78207;
0.769547,-3.84343;
0.853769,-3.90534;
0.941216,-3.96772;
1.03215,-4.03048;
1.12686,-4.09353;
1.22565,-4.15673;
1.32886,-4.21995;
1.43685,-4.28301;
1.55001,-4.34571;
1.66877,-4.40778;
1.79357,-4.46894;
1.92491,-4.52882;
2.06329,-4.58702;
2.20925,-4.64301;
2.36338,-4.6962;
2.52624,-4.74587;
2.69846,-4.79118;
2.88061,-4.83113;
3.0733,-4.86454;
3.27704,-4.89003;
3.4923,-4.90598;
3.71942,-4.91052;
3.95854,-4.9015;
4.20956,-4.87645;
4.47203,-4.83262;
4.74503,-4.76696;
5.02703,-4.67617;
5.31577,-4.55678;
5.60809,-4.40529;
5.8998,-4.21842;
6.18556,-3.99333;
5.77012,-4.30427];
a1 = [a1; a1(1, :)];
plot(a1(:,1), a1(:, 2), "r-*")
