boundary0 = [0.059472223493218970281, 0.32031300544331231528;
0.055394259203572118744, 0.32498520684623710686;
0.051417867537268312217, 0.32987558070021466561;
0.055346478578712339502, 0.32500779526964040933;
0.059472223493218970281, 0.32031300544331231528];
boundary1 = [-0.46130526857454962064, -2.9595420938217817941;
-0.31355798129507794769, -2.832536020390455711;
-0.2069426508862466374, -2.6887616204269466635;
-0.13988664307008868981, -2.5458691003547708753;
-0.10277734803543155107, -2.4153425777082850878;
-0.084999223832642245569, -2.3008967435120077916;
-0.078715193907570743526, -2.2017473740033692842;
-0.083100704120259397123, -2.2479099384565630615;
-0.089290881312829820105, -2.298010497153966547;
-0.097958933737695749744, -2.3526126169205356931;
-0.11004743930267474328, -2.4123154206251675724;
-0.1268722174118149526, -2.4776912334064427057;
-0.15024392288290097652, -2.5491520132356706441;
-0.18257148117213004013, -2.6266989718864879322;
-0.22685428581150743343, -2.7095181750229961892;
-0.28639748133263531749, -2.7954616936222209667;
-0.36408765835626732965, -2.8806398669697084181;
-0.46130526857454962064, -2.9595420938217817941];
plot(boundary1(:,1),boundary1(:, 2), "r-*")
