0.183952 	 -0.126895 	 -0.268059 	 -0.573137 	 -0.393887	0.38919
-01.38920 	 00.43684 	 01.60865 	 02.39081 	 01.19186	-01.0016
00.11132 	 -00.13393 	 00.52232 	 00.35764 	 00.22372	-00.46896
01.53810 	 -00.41971 	 -00.15729 	 -00.43447 	 00.31530	-01.1036
