0.153810 	 -0.041971 	 -0.015729 	 -0.043447 	 0.031530	-0.11036
-0.011132 	 0.013393 	 -0.052232 	 -0.035764 	 -0.022372	0.046896
-0.138920 	 0.043684 	 0.160865 	 0.239081 	 0.119186	-0.10016
-0.183952 	 0.126895 	 0.268059 	 0.573137 	 0.393887	-0.38919
